[ {
   "action": "menubar",
   "children": [ {
      "action": "MENU_FILE",
      "children": [ {
         "action": "COMMAND_NEW_TAB",
         "guid": "f1ec6072-5041-40cc-8213-65533f3d21b0",
         "type": "command"
      }, {
         "action": "COMMAND_NEW_WINDOW",
         "guid": "8c576cce-3e0c-42e4-97d5-14f925e1669d",
         "type": "command"
      }, {
         "action": "COMMAND_NEW_PRIVATE_WINDOW",
         "guid": "4a82aa73-26b8-4ca9-90b5-5b6b04f21286",
         "type": "command"
      }, {
         "action": "COMMAND_OPEN_PAGE",
         "guid": "eb72f169-e1c1-4100-89a3-fc5e12e4f7d6",
         "type": "command"
      }, {
         "action": "COMMAND_FOCUS_ADDRESSFIELD",
         "guid": "467d96f5-f9e7-4364-aef8-a73ef5b9d542",
         "type": "command"
      }, {
         "action": "",
         "guid": "d9c1e98c-9dd4-430d-bbc9-10a008659932",
         "type": "separator"
      }, {
         "action": "COMMAND_CLOSE_TAB",
         "guid": "57da42e2-7812-4193-9310-a52454dfcfc5",
         "type": "command"
      }, {
         "action": "COMMAND_CLOSE_WINDOW",
         "guid": "c41016c9-f543-4b8a-9abc-47b6acfa35d4",
         "type": "command"
      }, {
         "action": "",
         "guid": "4ed92d2e-8c49-40fa-b624-1da02ecd843a",
         "type": "separator"
      }, {
         "action": "COMMAND_SAVE_PAGE",
         "guid": "c1267d5b-e854-4bb0-be1d-252907a16377",
         "type": "command"
      }, {
         "action": "COMMAND_PRINT_PAGE",
         "guid": "5b3c8560-db7a-48a0-879f-a80adfde418d",
         "type": "command"
      }, {
         "action": "COMMAND_START_CHROMECAST",
         "guid": "5539074e-7b71-4468-ba90-05f8923f347f",
         "type": "command"
      }, {
         "action": "",
         "guid": "371197c8-9a82-4e11-9859-6c2aae8ea484",
         "type": "separator"
      }, {
         "action": "COMMAND_IMPORT_DATA",
         "guid": "81c0c609-7213-4792-bbc0-0bfcda74547d",
         "type": "command"
      }, {
         "action": "COMMAND_IMPORT_CALENDAR",
         "guid": "8c99c516-97c9-4072-86f7-7d62dcc19088",
         "type": "command"
      }, {
         "action": "COMMAND_EXPORT_DATA",
         "guid": "1f517376-ba69-4957-8ccf-8802a7c26c32",
         "type": "command"
      }, {
         "action": "",
         "guid": "8a506b63-c434-4894-bb62-be1998957eb2",
         "type": "separator"
      }, {
         "action": "COMMAND_OPEN_SESSION",
         "guid": "ec03e74c-4551-4e6f-9fe6-d541eda29ff5",
         "type": "command"
      }, {
         "action": "COMMAND_SAVE_SESSION",
         "guid": "f7dea985-2d4c-48d8-8027-648822f36ca7",
         "type": "command"
      }, {
         "action": "",
         "guid": "362747a1-0d42-44c6-a5de-5ad31f587d32",
         "type": "separator"
      }, {
         "action": "COMMAND_EXIT",
         "guid": "9f6971cd-8490-4c48-aa98-036040fc74b2",
         "type": "command"
      } ],
      "guid": "e3635f3e-dbf1-4678-befb-7d725ba08a4e",
      "type": "folder"
   }, {
      "action": "MENU_EDIT",
      "children": [ {
         "action": "COMMAND_CLIPBOARD_UNDO",
         "guid": "7de86fca-a9c5-4332-bdaf-c9a44a0fb414",
         "type": "command"
      }, {
         "action": "COMMAND_CLIPBOARD_REDO",
         "guid": "a3283e1a-9b82-430d-8551-bef80be24b63",
         "type": "command"
      }, {
         "action": "",
         "guid": "cae410b9-1045-4ef0-b5c9-6b68ab26a8ce",
         "type": "separator"
      }, {
         "action": "COMMAND_CLIPBOARD_CUT",
         "guid": "2caeb937-c254-486d-9896-c0b1357d0c63",
         "type": "command"
      }, {
         "action": "COMMAND_CLIPBOARD_COPY",
         "guid": "e8db0ded-40e4-464f-bcc1-89c458612098",
         "type": "command"
      }, {
         "action": "COMMAND_CLIPBOARD_PASTE",
         "guid": "ce0fef7d-de0e-411b-9956-3b652a2cb833",
         "type": "command"
      }, {
         "action": "COMMAND_CLIPBOARD_PASTE_AS_PLAIN_TEXT_OR_PASTE_AND_GO",
         "guid": "33d796e6-6271-417e-a13f-96aede5c04d6",
         "type": "command"
      }, {
         "action": "COMMAND_CLIPBOARD_PASTE_AS_PLAIN_TEXT",
         "guid": "33b94866-2231-4349-8f14-10a1f26a0fbe",
         "type": "command"
      }, {
         "action": "",
         "guid": "69c5ba8c-0976-4333-a5e6-c5bc513326b4",
         "type": "separator"
      }, {
         "action": "COMMAND_CLIPBOARD_SELECT_ALL",
         "guid": "d0d8298d-8062-46cd-af62-9d347967ed99",
         "type": "command"
      }, {
         "action": "",
         "guid": "227d8233-0125-4030-b728-2b0497b410df",
         "type": "separator"
      }, {
         "action": "COMMAND_FIND_IN_PAGE",
         "guid": "0f3c3d3f-b7c1-480b-b372-b523f78e416e",
         "type": "command"
      } ],
      "guid": "aafd8f0e-2514-4dee-921b-de8792e192ac",
      "type": "folder"
   }, {
      "action": "MENU_VIEW",
      "children": [ {
         "action": "COMMAND_TOGGLE_MENU_POSITION",
         "guid": "88761dc5-a07a-42bb-976c-74848c2cde7a",
         "type": "checkbox"
      }, {
         "action": "COMMAND_MAIN_TOGGLE_TAB_BAR",
         "guid": "207b1127-0a2f-4136-9c05-5803a450a254",
         "type": "checkbox"
      }, {
         "action": "COMMAND_SHOW_BOOKMARK_BAR",
         "guid": "6aaf8e8b-330a-4c95-bdd8-4e60aa7be468",
         "type": "checkbox"
      }, {
         "action": "COMMAND_TOGGLE_FOOTER",
         "guid": "a5d59d9f-a75e-46b8-bfa0-5f99df9071ce",
         "type": "checkbox"
      }, {
         "action": "COMMAND_TOGGLE_PANEL",
         "guid": "e07afafd-1d6e-437d-8aad-919e8c902a5c",
         "type": "checkbox"
      }, {
         "action": "",
         "guid": "74959ace-472e-40aa-bacc-e31706c9536a",
         "type": "separator"
      }, {
         "action": "COMMAND_SHOW_BOOKMARK_PANEL",
         "guid": "e382e5de-75cb-4424-ac00-361e59c38e4b",
         "type": "command"
      }, {
         "action": "COMMAND_SHOW_MAIL_PANEL",
         "guid": "0a5fa632-aec4-4fc7-a979-6d33cb7ef5c4",
         "type": "command"
      }, {
         "action": "COMMAND_SHOW_CONTACTS_PANEL",
         "guid": "effeaa0f-a123-491a-81ff-f6b9b81ff00b",
         "type": "command"
      }, {
         "action": "COMMAND_SHOW_DOWNLOADS_PANEL",
         "guid": "6bf24cd7-508a-4eb6-928d-b48f943d559a",
         "type": "command"
      }, {
         "action": "COMMAND_SHOW_NOTES_PANEL",
         "guid": "1652b845-dd9f-4eda-ae7b-8a421e076b19",
         "type": "command"
      }, {
         "action": "COMMAND_SHOW_HISTORY_PANEL",
         "guid": "f8b63736-ca29-4be5-b3fb-03caa8ef4190",
         "type": "command"
      }, {
         "action": "COMMAND_SHOW_WINDOW_PANEL",
         "guid": "9d57af64-74e4-474d-939b-7ee3da147dad",
         "type": "command"
      }, {
         "action": "",
         "guid": "469c0bcd-41d0-46d0-85ea-88110f8298ed",
         "type": "separator"
      }, {
         "action": "CONTAINER_WEBPANEL",
         "guid": "f74971b6-2375-4803-9b32-2249acf92c10",
         "mode": "folder",
         "type": "container"
      }, {
         "action": "",
         "guid": "11933dd0-d05f-49f5-b315-2390bc9d3dfe",
         "type": "separator"
      }, {
         "action": "MENU_IMAGES_AND_ANIMATION",
         "children": [ {
            "action": "COMMAND_SET_LOAD_IMAGES_ALWAYS",
            "guid": "3753bd0a-fa34-41c1-8ce6-18b772cde0dc",
            "radiogroup": "loadimage",
            "type": "radio"
         }, {
            "action": "COMMAND_SET_LOAD_IMAGES_NEVER",
            "guid": "ff13f739-ad9f-4a35-a95b-7aff67c9170c",
            "radiogroup": "loadimage",
            "type": "radio"
         }, {
            "action": "COMMAND_SET_LOAD_IMAGES_CACHE",
            "guid": "07f5f552-1beb-4a84-8d06-7e2653ac9e0e",
            "radiogroup": "loadimage",
            "type": "radio"
         }, {
            "action": "",
            "guid": "0afab0ba-865e-46d1-b81d-1b1086f84769",
            "type": "separator"
         }, {
            "action": "COMMAND_SET_ANIMATIONS_LOOP",
            "guid": "9dd35297-459a-4c51-99d4-9c41835256e5",
            "radiogroup": "animation",
            "type": "radio"
         }, {
            "action": "COMMAND_SET_ANIMATIONS_NEVER",
            "guid": "0d393294-764b-481d-9af3-1ef10830cf8c",
            "radiogroup": "animation",
            "type": "radio"
         }, {
            "action": "COMMAND_SET_ANIMATIONS_ONCE",
            "guid": "ca683796-36fc-4e74-be13-377600e01756",
            "radiogroup": "animation",
            "type": "radio"
         } ],
         "guid": "12ca8550-a7a5-4848-aa71-ae053a23386a",
         "type": "folder"
      }, {
         "action": "",
         "guid": "35588533-623d-4a09-bde4-c0f09c0886bb",
         "type": "separator"
      }, {
         "action": "COMMAND_MAIN_ZOOM_IN",
         "guid": "6684309d-5abd-4c0b-be82-da7930aa4c07",
         "type": "command"
      }, {
         "action": "COMMAND_MAIN_ZOOM_OUT",
         "guid": "61ba6fe4-dbb4-45be-be01-2c3e203a166c",
         "type": "command"
      }, {
         "action": "COMMAND_MAIN_ZOOM_RESET",
         "guid": "948e8045-1dec-4386-95f2-4a9bfb5f2079",
         "type": "command"
      } ],
      "guid": "95cb1c75-957e-46b6-a001-5c3cfdc9286c",
      "type": "folder"
   }, {
      "action": "MENU_BOOKMARKS",
      "children": [ {
         "action": "COMMAND_SHOW_BOOKMARKS",
         "guid": "5cd21b16-3de6-4fc7-ac7f-cfe3ce6f4ff9",
         "type": "command"
      }, {
         "action": "CONTAINER_BOOKMARK",
         "guid": "d6d4704b-7228-4cd4-b934-8b56e261a262",
         "mode": "inline",
         "type": "container"
      } ],
      "guid": "bba60e82-db9e-4489-b133-5eee5beaed0d",
      "type": "folder"
   }, {
      "action": "MENU_TOOLS",
      "children": [ {
         "action": "COMMAND_SHOW_SETTINGS",
         "guid": "01b70125-db0f-4b07-b193-47fb489da47b",
         "type": "command"
      }, {
         "action": "",
         "guid": "1a54c34a-5974-4cac-a047-9af11a2932be",
         "type": "separator"
      }, {
         "action": "COMMAND_SHOW_QUICK_COMMANDS",
         "guid": "4de77347-5843-4bee-a8be-f331b9ccc70b",
         "type": "command"
      }, {
         "action": "",
         "guid": "bc1fb920-91d8-45cf-961a-0555d129ea41",
         "type": "separator"
      }, {
         "action": "COMMAND_SHOW_BOOKMARKS",
         "guid": "01c2bb7e-aebc-480f-b325-f49be7968be9",
         "type": "command"
      }, {
         "action": "COMMAND_SHOW_HISTORY",
         "guid": "a48246d8-0752-4645-86d2-c70413408468",
         "type": "command"
      }, {
         "action": "COMMAND_SHOW_CALENDAR",
         "guid": "fa9b63be-8107-4ba4-a69b-a3dd6c45c7bc",
         "type": "command"
      }, {
         "action": "COMMAND_SHOW_EXTENSIONS",
         "guid": "2b520dfe-72e3-40e7-87dc-7aee9d306763",
         "type": "command"
      }, {
         "action": "",
         "guid": "7ebbaeda-1c07-4e33-bc61-7fbc4ceffaa9",
         "type": "separator"
      }, {
         "action": "MENU_CAPTURE",
         "children": [ {
            "action": "COMMAND_CAPTURE_PAGE_TO_DISK",
            "guid": "0b8ebe93-32be-4298-9120-9cb9844066b1",
            "type": "command"
         }, {
            "action": "COMMAND_CAPTURE_PAGE_TO_CLIPBOARD",
            "guid": "27773d3c-f623-4b35-a575-34c79278cc81",
            "type": "command"
         }, {
            "action": "",
            "guid": "980177e0-daf0-4220-b8ba-10484ee4d525",
            "type": "separator"
         }, {
            "action": "COMMAND_CAPTURE_AREA_TO_DISK",
            "guid": "179041a7-dd2b-4c1e-a356-b80a0b3e0ace",
            "type": "command"
         }, {
            "action": "COMMAND_CAPTURE_AREA_TO_CLIPBOARD",
            "guid": "ceb79fba-6c5e-446b-81ef-79eaec9ff66e",
            "type": "command"
         } ],
         "guid": "994bf62b-7ec3-4a2c-9d1c-1c57cbd0cb91",
         "type": "folder"
      }, {
         "action": "",
         "guid": "8643c3ad-34b3-4159-a4e7-3b8cd045e0b7",
         "type": "separator"
      }, {
         "action": "COMMAND_SHOW_CLEAR_PRIVATE_DATA",
         "guid": "518965f1-8a2d-46a6-b2e6-bc945f562312",
         "type": "command"
      }, {
         "action": "",
         "guid": "6d85e9cb-214d-4314-803d-d75224feded9",
         "type": "separator"
      }, {
         "action": "COMMAND_TASK_MANAGER",
         "guid": "8dfdf88a-21a0-4a55-8cbc-54e570dd48ae",
         "type": "command"
      }, {
         "action": "COMMAND_DEVELOPER_TOOLS",
         "guid": "fed5a772-534a-43e3-849d-6f4dfca1d55e",
         "type": "command"
      } ],
      "guid": "124940bb-fea1-4123-8fb6-1a220f021df2",
      "type": "folder"
   }, {
      "action": "MENU_WINDOW",
      "children": [ {
         "action": "COMMAND_FULLSCREEN",
         "guid": "a9b4770c-ded4-4b16-9642-931829518ef9",
         "type": "command"
      }, {
         "action": "COMMAND_MAIN_TOGGLE_UI",
         "guid": "ae7c8a8c-0c28-4b4b-904a-97f4fc6dc806",
         "type": "checkbox"
      }, {
         "action": "",
         "guid": "76000707-0cc3-4555-a47e-bd4a9548a935",
         "type": "separator"
      }, {
         "action": "CONTAINER_PINNED_TAB",
         "guid": "ef475d61-cf57-48bf-9918-cb713abbf968",
         "mode": "folder",
         "type": "container"
      }, {
         "action": "CONTAINER_TAB",
         "guid": "2c94fb5f-376c-4ebc-adb8-56abd2ed62e4",
         "mode": "inline",
         "type": "container"
      } ],
      "guid": "352a4931-6bc3-4fae-a7c9-c4b11f799b99",
      "type": "folder"
   }, {
      "action": "MENU_HELP",
      "children": [ {
         "action": "COMMAND_SHOW_HELP",
         "guid": "d777bee1-f0c8-46a7-9f7f-98fe662e0e27",
         "type": "command"
      }, {
         "action": "COMMAND_SHOW_KEYBOARDSHORTCUTS",
         "guid": "7bba5ec2-6002-4edc-8d54-2441e8d68d04",
         "type": "command"
      }, {
         "action": "COMMAND_SHOW_WELCOME",
         "guid": "578df489-a843-472c-a96e-15c987c94d82",
         "type": "command"
      }, {
         "action": "COMMAND_SHOW_COMMUNITY",
         "guid": "bb60d8bc-50c1-48f0-bcad-035f6ec4faed",
         "type": "command"
      }, {
         "action": "COMMAND_REPORT_BUG",
         "guid": "6900609b-f60b-441d-aaa4-6bd871845da8",
         "type": "command"
      }, {
         "action": "",
         "guid": "10e8afd7-8345-4459-b5f1-cb9b2d027d58",
         "type": "separator"
      }, {
         "action": "COMMAND_CHECK_FOR_UPDATES",
         "guid": "0bbcd2ac-c5c9-4e26-a672-329ab71b66e7",
         "type": "command"
      }, {
         "action": "",
         "guid": "19961fba-509e-459d-8337-cc8dfbb66e08",
         "type": "separator"
      }, {
         "action": "COMMAND_SHOW_ABOUT",
         "guid": "9d391d3b-d5cd-474d-b0e8-05e7c4d0e6fb",
         "type": "command"
      } ],
      "guid": "147b2d2e-4b0a-4518-bbbf-d8527412db0f",
      "type": "folder"
   } ],
   "guid": "e5eac115-690c-488e-8eb9-5f456db815c2",
   "role": "horizontal",
   "type": "menu"
}, {
   "action": "vivaldi",
   "children": [ {
      "action": "COMMAND_NEW_TAB",
      "guid": "be7147e4-58bc-4dc2-a8ae-18532975e056",
      "origin": 2,
      "type": "command"
   }, {
      "action": "COMMAND_NEW_WINDOW",
      "guid": "90c387c2-b037-400c-8303-ffcea7c29ae9",
      "origin": 2,
      "type": "command"
   }, {
      "action": "COMMAND_NEW_PRIVATE_WINDOW",
      "guid": "19d9705c-0dd8-4cc6-b292-7b7f78af6167",
      "origin": 2,
      "type": "command"
   }, {
      "action": "",
      "guid": "1f803a9c-0d22-4e2e-a509-abc77f43f8a5",
      "origin": 2,
      "type": "separator"
   }, {
      "action": "MENU_650",
      "children": [ {
         "action": "COMMAND_SHOW_HISTORY",
         "guid": "50a2a202-dfe1-41f8-8db8-92de721db623",
         "origin": 2,
         "type": "command"
      }, {
         "action": "",
         "guid": "93fc8301-3084-4371-8cad-db485d86b647",
         "origin": 2,
         "type": "separator"
      }, {
         "action": "COMMAND_SHOW_CLOSED_TABS",
         "guid": "842aade1-e6eb-4906-bfaa-2ba5e76768d6",
         "origin": 2,
         "type": "command"
      } ],
      "guid": "2ddfbe6c-6a39-46b1-a365-1d797f6704d5",
      "origin": 2,
      "title": "History",
      "type": "folder"
   }, {
      "action": "COMMAND_SHOW_DOWNLOADS_PANEL",
      "guid": "d733bb33-72f7-43df-9256-3ab1be3c8e9c",
      "origin": 2,
      "type": "command"
   }, {
      "action": "MENU_654",
      "children": [ {
         "action": "COMMAND_ADD_BOOKMARK",
         "guid": "008040ce-61fe-4aaa-bd47-0fc05dd5316f",
         "origin": 2,
         "type": "command"
      }, {
         "action": "COMMAND_BOOKMARK_SELECTED_TABS",
         "guid": "e6ed7b15-67fe-4e2e-92ab-65f2ef61d0c5",
         "origin": 2,
         "type": "command"
      }, {
         "action": "",
         "guid": "1c0e69bb-480e-4bb2-a1c6-a8b5dcc1149f",
         "origin": 2,
         "type": "separator"
      }, {
         "action": "COMMAND_SHOW_BOOKMARK_BAR",
         "guid": "670ede48-4a04-498c-b78c-e505aa0a5b43",
         "origin": 2,
         "type": "checkbox"
      }, {
         "action": "COMMAND_SHOW_BOOKMARKS",
         "guid": "b102c573-41ed-4b3d-8b58-4970e7d37573",
         "origin": 2,
         "type": "command"
      }, {
         "action": "COMMAND_IMPORT_DATA",
         "guid": "7824da75-821a-481e-864a-88f11cd0950b",
         "origin": 2,
         "type": "command"
      } ],
      "guid": "d5e3ecee-a4e9-4dd5-9191-0d3bec9df760",
      "origin": 2,
      "title": "Bookmarks",
      "type": "folder"
   }, {
      "action": "",
      "guid": "a586d09b-6c32-4fc1-af47-1c6996fabe71",
      "origin": 2,
      "type": "separator"
   }, {
      "action": "MENU_662",
      "children": [ {
         "action": "COMMAND_MAIN_ZOOM_IN",
         "guid": "2106e7d0-b3f6-4f69-a700-47044461dd67",
         "origin": 2,
         "type": "command"
      }, {
         "action": "COMMAND_MAIN_ZOOM_RESET",
         "guid": "4176c2b4-68bc-4f14-a59b-f4a06d12e9de",
         "origin": 2,
         "type": "command"
      }, {
         "action": "COMMAND_MAIN_ZOOM_OUT",
         "guid": "24fc150d-59ef-4566-a32b-e0b3ec27526e",
         "origin": 2,
         "type": "command"
      }, {
         "action": "",
         "guid": "e65b74e6-f5d3-4e32-9ead-c1833c768c23",
         "origin": 2,
         "type": "separator"
      }, {
         "action": "COMMAND_FULLSCREEN",
         "guid": "6f19c233-9f3b-41b3-b862-bf0fc09fb8b2",
         "origin": 2,
         "type": "command"
      } ],
      "guid": "fe4eae09-8fa3-4c08-b53e-34d52f4ab0de",
      "origin": 2,
      "title": "Zoom",
      "type": "folder"
   }, {
      "action": "",
      "guid": "d03c117d-a1c9-4fa1-b78e-0e0b26d6156f",
      "origin": 2,
      "type": "separator"
   }, {
      "action": "COMMAND_PRINT_PAGE",
      "guid": "af371c3b-2502-4570-ad7f-73768086f393",
      "origin": 2,
      "type": "command"
   }, {
      "action": "COMMAND_START_CHROMECAST",
      "guid": "ac721cae-fbf1-42b9-a1f9-739362fbeafa",
      "origin": 2,
      "type": "command"
   }, {
      "action": "COMMAND_FIND_IN_PAGE",
      "guid": "bae7f1d5-c6cc-425d-a468-35f215db7e85",
      "origin": 2,
      "type": "command"
   }, {
      "action": "MENU_672",
      "children": [ {
         "action": "COMMAND_SAVE_PAGE",
         "guid": "e2ad7b6b-927b-455f-b0f3-aee3024c4f47",
         "origin": 2,
         "type": "command"
      }, {
         "action": "",
         "guid": "04d62359-db90-4ef0-bb0e-7854be4d63aa",
         "origin": 2,
         "type": "separator"
      }, {
         "action": "COMMAND_SHOW_CLEAR_PRIVATE_DATA",
         "guid": "e5b27c5b-3ce2-4c15-a9b8-a3cf81ed578c",
         "origin": 2,
         "type": "command"
      }, {
         "action": "COMMAND_SHOW_EXTENSIONS",
         "guid": "4ef88951-3bff-4f8c-955e-0a574e3ac449",
         "origin": 2,
         "type": "command"
      }, {
         "action": "COMMAND_TASK_MANAGER",
         "guid": "c25a3ab1-3cf6-4d4d-b56b-79033c4ce9d9",
         "origin": 2,
         "type": "command"
      }, {
         "action": "",
         "guid": "6ac959c7-9549-46a9-9d7d-2a284c335991",
         "origin": 2,
         "type": "separator"
      }, {
         "action": "COMMAND_DEVELOPER_TOOLS",
         "guid": "4cf9516d-e593-4f93-b9a5-9ef3ae690ae2",
         "origin": 2,
         "type": "command"
      }, {
         "action": "MENU_645",
         "children": [ {
            "action": "MENU_FILE",
            "children": [ {
               "action": "COMMAND_NEW_TAB",
               "guid": "5f33fa81-15b4-463e-b2c9-947306edd8f8",
               "type": "command"
            }, {
               "action": "COMMAND_NEW_WINDOW",
               "guid": "060ca301-0601-40ee-8c42-509b6e7cf2e0",
               "type": "command"
            }, {
               "action": "COMMAND_NEW_PRIVATE_WINDOW",
               "guid": "c56c07b3-13f1-49b2-8ea7-ff4c5131e6c0",
               "type": "command"
            }, {
               "action": "COMMAND_OPEN_PAGE",
               "guid": "667f05be-f003-4b73-9ba4-60562b4cc45e",
               "type": "command"
            }, {
               "action": "COMMAND_FOCUS_ADDRESSFIELD",
               "guid": "407ccf62-9d64-4a56-ae00-4c212a2a6554",
               "type": "command"
            }, {
               "action": "",
               "guid": "3630a7ed-52e4-4b80-b581-445211c7c3af",
               "type": "separator"
            }, {
               "action": "COMMAND_CLOSE_TAB",
               "guid": "acf5453c-8ef8-4bc9-ba79-4b7390366206",
               "type": "command"
            }, {
               "action": "COMMAND_CLOSE_WINDOW",
               "guid": "710ccf6d-a3e4-44a1-8b14-63e33f5029d9",
               "type": "command"
            }, {
               "action": "",
               "guid": "17dbea95-da62-451b-a09c-95650b5f85bf",
               "type": "separator"
            }, {
               "action": "COMMAND_SAVE_PAGE",
               "guid": "1bbd3adf-15cb-4a28-9134-4438c0a9345d",
               "type": "command"
            }, {
               "action": "COMMAND_PRINT_PAGE",
               "guid": "b733751b-29a3-40df-9776-db9c6204b6f3",
               "type": "command"
            }, {
               "action": "COMMAND_START_CHROMECAST",
               "guid": "a73b19b8-e441-4a04-9a77-b5c21f551874",
               "type": "command"
            }, {
               "action": "",
               "guid": "f9db0664-8404-4273-b8ba-02f697e776ca",
               "type": "separator"
            }, {
               "action": "COMMAND_IMPORT_DATA",
               "guid": "e7d4a157-4da6-4cc5-95ae-de6328656df5",
               "type": "command"
            }, {
               "action": "COMMAND_IMPORT_CALENDAR",
               "guid": "b431e507-2c83-49fd-92ea-4efd1efb1d9f",
               "type": "command"
            }, {
               "action": "COMMAND_EXPORT_DATA",
               "guid": "cab45b2e-2e78-4ae6-8bc0-bd5ee51889ac",
               "type": "command"
            }, {
               "action": "",
               "guid": "c0e3ff7f-0667-4aa3-9d1b-fe71043b38fe",
               "type": "separator"
            }, {
               "action": "COMMAND_OPEN_SESSION",
               "guid": "bec606a2-3e79-4eb3-9dc4-298ab3965574",
               "type": "command"
            }, {
               "action": "COMMAND_SAVE_SESSION",
               "guid": "c134c731-3741-4f38-ab9c-e3da4999613d",
               "type": "command"
            }, {
               "action": "",
               "guid": "5d396907-4f1c-4b3f-851f-28bac6aeb7d5",
               "type": "separator"
            }, {
               "action": "COMMAND_EXIT",
               "guid": "486f1dfd-4915-4aa1-9f4d-04098137799c",
               "type": "command"
            } ],
            "guid": "1ac941e2-c2da-472f-8ad0-3a6caca8b6cb",
            "type": "folder"
         }, {
            "action": "MENU_EDIT",
            "children": [ {
               "action": "COMMAND_CLIPBOARD_UNDO",
               "guid": "c527173a-213e-45b2-8f8c-b6b72d30751f",
               "type": "command"
            }, {
               "action": "COMMAND_CLIPBOARD_REDO",
               "guid": "9c2291e2-a9a8-46b8-b060-064318401bef",
               "type": "command"
            }, {
               "action": "",
               "guid": "d721741d-5241-4d40-8d44-03dcb22ff096",
               "type": "separator"
            }, {
               "action": "COMMAND_CLIPBOARD_CUT",
               "guid": "6e15a465-eb2d-4271-ad31-10e00df854a4",
               "type": "command"
            }, {
               "action": "COMMAND_CLIPBOARD_COPY",
               "guid": "9ba75339-36c3-49a8-b582-b2d233c0d742",
               "type": "command"
            }, {
               "action": "COMMAND_CLIPBOARD_PASTE",
               "guid": "9b4a27d0-b528-46cb-aff5-2a230001edba",
               "type": "command"
            }, {
               "action": "COMMAND_CLIPBOARD_PASTE_AS_PLAIN_TEXT_OR_PASTE_AND_GO",
               "guid": "d2c0290d-e321-4512-9bfd-dce93d43f53d",
               "type": "command"
            }, {
               "action": "COMMAND_CLIPBOARD_PASTE_AS_PLAIN_TEXT",
               "guid": "09c9bcd2-1d11-400f-9c39-4dad6336fd83",
               "type": "command"
            }, {
               "action": "",
               "guid": "e8f17038-0868-4d2a-922c-84cde3bc3112",
               "type": "separator"
            }, {
               "action": "COMMAND_CLIPBOARD_SELECT_ALL",
               "guid": "95cc4d16-d277-4a12-be8d-ed03358a0a18",
               "type": "command"
            }, {
               "action": "",
               "guid": "8466aa8f-b815-4e79-b0e0-48fa4dfe9f8f",
               "type": "separator"
            }, {
               "action": "COMMAND_FIND_IN_PAGE",
               "guid": "ce8e6c1e-67a5-4e1f-bec6-df99357b3605",
               "type": "command"
            } ],
            "guid": "1376ab81-37eb-4e76-a751-e073abf31aec",
            "type": "folder"
         }, {
            "action": "MENU_VIEW",
            "children": [ {
               "action": "COMMAND_TOGGLE_MENU_POSITION",
               "guid": "8745fb26-5c1f-42b6-80a1-a2a5e4a1bbcd",
               "type": "checkbox"
            }, {
               "action": "COMMAND_MAIN_TOGGLE_TAB_BAR",
               "guid": "d71448f7-4e8d-476a-8029-f4bee2dbead8",
               "type": "checkbox"
            }, {
               "action": "COMMAND_SHOW_BOOKMARK_BAR",
               "guid": "3cc7fc85-38d1-4eb9-bc29-1175f7aef61a",
               "type": "checkbox"
            }, {
               "action": "COMMAND_TOGGLE_FOOTER",
               "guid": "f3f715cf-3f33-4ac8-b880-30091650ab4b",
               "type": "checkbox"
            }, {
               "action": "COMMAND_TOGGLE_PANEL",
               "guid": "3c1b7da7-1ecf-416d-b80c-a5bab1c973f2",
               "type": "checkbox"
            }, {
               "action": "",
               "guid": "0f91d32d-7973-4aa4-861e-8b19725a4644",
               "type": "separator"
            }, {
               "action": "COMMAND_SHOW_BOOKMARK_PANEL",
               "guid": "be66346c-aaef-4907-9d13-c3a287ca92d2",
               "type": "command"
            }, {
               "action": "COMMAND_SHOW_MAIL_PANEL",
               "guid": "d2e29961-f536-435f-b153-071cf46a8122",
               "type": "command"
            }, {
               "action": "COMMAND_SHOW_CONTACTS_PANEL",
               "guid": "8c06c34d-eb2e-462f-aa91-fe4118d58695",
               "type": "command"
            }, {
               "action": "COMMAND_SHOW_DOWNLOADS_PANEL",
               "guid": "701fb6c0-83df-4df6-975a-e3549787c03d",
               "type": "command"
            }, {
               "action": "COMMAND_SHOW_NOTES_PANEL",
               "guid": "71d979f6-c9a8-4cfd-a1c8-eee115f1a497",
               "type": "command"
            }, {
               "action": "COMMAND_SHOW_HISTORY_PANEL",
               "guid": "51b80c27-702e-4ca1-ab4b-83604b7619da",
               "type": "command"
            }, {
               "action": "COMMAND_SHOW_WINDOW_PANEL",
               "guid": "d876e04f-d69f-4fb0-9588-acd13e9ec9d9",
               "type": "command"
            }, {
               "action": "",
               "guid": "1ce2ea32-2542-4dfb-8f82-05663444bfb9",
               "type": "separator"
            }, {
               "action": "CONTAINER_WEBPANEL",
               "guid": "99c5926b-d4e9-4b20-985b-ccd8f3867559",
               "mode": "folder",
               "type": "container"
            }, {
               "action": "",
               "guid": "24d3d660-1c2e-4b77-bf1a-c53a1488fb2d",
               "type": "separator"
            }, {
               "action": "MENU_IMAGES_AND_ANIMATION",
               "children": [ {
                  "action": "COMMAND_SET_LOAD_IMAGES_ALWAYS",
                  "guid": "4b516f5a-7b39-471d-95a6-db7c43e1d375",
                  "radiogroup": "loadimage",
                  "type": "radio"
               }, {
                  "action": "COMMAND_SET_LOAD_IMAGES_NEVER",
                  "guid": "0b269782-fac1-489c-8e0c-331c2fcaf7a0",
                  "radiogroup": "loadimage",
                  "type": "radio"
               }, {
                  "action": "COMMAND_SET_LOAD_IMAGES_CACHE",
                  "guid": "25784a21-b5d6-40ff-9e27-02bf2b3b6c24",
                  "radiogroup": "loadimage",
                  "type": "radio"
               }, {
                  "action": "",
                  "guid": "ebe0378a-7e09-4dba-baeb-44c302a2de77",
                  "type": "separator"
               }, {
                  "action": "COMMAND_SET_ANIMATIONS_LOOP",
                  "guid": "6d3d950b-c087-47fb-8048-0bdfdc39b083",
                  "radiogroup": "animation",
                  "type": "radio"
               }, {
                  "action": "COMMAND_SET_ANIMATIONS_NEVER",
                  "guid": "57359458-a4ae-4936-8cde-c69967d28b37",
                  "radiogroup": "animation",
                  "type": "radio"
               }, {
                  "action": "COMMAND_SET_ANIMATIONS_ONCE",
                  "guid": "7a1f6f7c-f687-4216-9a62-083b02edf219",
                  "radiogroup": "animation",
                  "type": "radio"
               } ],
               "guid": "8939a663-4113-41b2-a3af-d538a8e096eb",
               "type": "folder"
            }, {
               "action": "",
               "guid": "173a7669-e91c-4e0f-add2-dc5327d10d78",
               "type": "separator"
            }, {
               "action": "COMMAND_MAIN_ZOOM_IN",
               "guid": "bc0fc632-fd6f-41d0-8b65-b905b060bf76",
               "type": "command"
            }, {
               "action": "COMMAND_MAIN_ZOOM_OUT",
               "guid": "30250723-a9d3-4bc6-9841-b0f86faebceb",
               "type": "command"
            }, {
               "action": "COMMAND_MAIN_ZOOM_RESET",
               "guid": "9daa0fa7-67ab-41bd-bb1c-cb6a6b4d0f42",
               "type": "command"
            } ],
            "guid": "486616f0-7e26-441d-bb23-5fe0378853b8",
            "type": "folder"
         }, {
            "action": "MENU_BOOKMARKS",
            "children": [ {
               "action": "COMMAND_SHOW_BOOKMARKS",
               "guid": "ebfe804d-a682-4c96-bf99-0441fbdf17ec",
               "type": "command"
            }, {
               "action": "CONTAINER_BOOKMARK",
               "guid": "10bde02e-688b-4988-b6f3-7010c6fd43f9",
               "mode": "inline",
               "type": "container"
            } ],
            "guid": "8169e82d-d2eb-4952-b7c5-267d319b4566",
            "type": "folder"
         }, {
            "action": "MENU_TOOLS",
            "children": [ {
               "action": "COMMAND_SHOW_SETTINGS",
               "guid": "cdaf86be-ca1b-4a03-aba6-2042c3aa2fea",
               "type": "command"
            }, {
               "action": "",
               "guid": "9ee14f3c-2ada-4b19-a7c2-800f6f05a72a",
               "type": "separator"
            }, {
               "action": "COMMAND_SHOW_QUICK_COMMANDS",
               "guid": "24fb8402-7a63-4327-8117-3121afd1fb18",
               "type": "command"
            }, {
               "action": "",
               "guid": "7bfd3e20-18bd-4b14-99da-f9f0a9c18aa6",
               "type": "separator"
            }, {
               "action": "COMMAND_SHOW_BOOKMARKS",
               "guid": "ea0fc3a3-291f-4a69-95b4-2e188627d7f8",
               "type": "command"
            }, {
               "action": "COMMAND_SHOW_HISTORY",
               "guid": "6207cf9c-69bc-41a4-8816-977f4c8c8fa6",
               "type": "command"
            }, {
               "action": "COMMAND_SHOW_CALENDAR",
               "guid": "36716d80-383d-40a5-90fa-fa06b6250aa7",
               "type": "command"
            }, {
               "action": "COMMAND_SHOW_EXTENSIONS",
               "guid": "b2c8f137-a006-4c70-9651-56aeedf2aa4a",
               "type": "command"
            }, {
               "action": "",
               "guid": "6b3097a4-4334-45b1-900a-bcf457e28b74",
               "type": "separator"
            }, {
               "action": "MENU_CAPTURE",
               "children": [ {
                  "action": "COMMAND_CAPTURE_PAGE_TO_DISK",
                  "guid": "0306686d-1309-4bfe-9c8a-a3d7546eb5f1",
                  "type": "command"
               }, {
                  "action": "COMMAND_CAPTURE_PAGE_TO_CLIPBOARD",
                  "guid": "53cad061-125b-4d56-afbd-b6086e0f93cf",
                  "type": "command"
               }, {
                  "action": "",
                  "guid": "1f581ed1-9c99-4db1-8d5c-52a5e8035435",
                  "type": "separator"
               }, {
                  "action": "COMMAND_CAPTURE_AREA_TO_DISK",
                  "guid": "cf203a45-8425-4c7f-bad0-0a89b41e4ab4",
                  "type": "command"
               }, {
                  "action": "COMMAND_CAPTURE_AREA_TO_CLIPBOARD",
                  "guid": "1060dd9f-e9cc-4f33-af19-556ba61e5573",
                  "type": "command"
               } ],
               "guid": "65a9cfca-1f94-4ada-a641-666993195c4d",
               "type": "folder"
            }, {
               "action": "",
               "guid": "9de22f83-fd2b-442e-8048-3c75dca86a9d",
               "type": "separator"
            }, {
               "action": "COMMAND_SHOW_CLEAR_PRIVATE_DATA",
               "guid": "8c8a80c4-4ed5-4b0c-a718-e7e9c4162e05",
               "type": "command"
            }, {
               "action": "",
               "guid": "51bff82b-b16a-4881-bacb-a5b67a7a191e",
               "type": "separator"
            }, {
               "action": "COMMAND_TASK_MANAGER",
               "guid": "b00c4e23-eae2-448d-8abd-60a3a677155e",
               "type": "command"
            }, {
               "action": "COMMAND_DEVELOPER_TOOLS",
               "guid": "9bb1a894-4e79-4fc7-9a56-18379fef7605",
               "type": "command"
            } ],
            "guid": "08fb9701-f0e1-42ce-8cc8-26df9e6bb903",
            "type": "folder"
         }, {
            "action": "MENU_WINDOW",
            "children": [ {
               "action": "COMMAND_FULLSCREEN",
               "guid": "97346638-a30d-4d15-adcd-c669fda31926",
               "type": "command"
            }, {
               "action": "COMMAND_MAIN_TOGGLE_UI",
               "guid": "232b8378-cf2c-4da4-86a3-aab39b317173",
               "type": "checkbox"
            }, {
               "action": "",
               "guid": "71e1e759-395f-4607-9964-9bb37f5ac8e5",
               "type": "separator"
            }, {
               "action": "CONTAINER_PINNED_TAB",
               "guid": "51f3bdd1-3a2a-45fb-9710-3f7137298ab1",
               "mode": "folder",
               "type": "container"
            }, {
               "action": "CONTAINER_TAB",
               "guid": "caf82053-73d8-448a-a527-251cf3d42f3d",
               "mode": "inline",
               "type": "container"
            } ],
            "guid": "71ed965e-c2af-4bc1-a08f-8ca3ac16a35b",
            "type": "folder"
         }, {
            "action": "MENU_HELP",
            "children": [ {
               "action": "COMMAND_SHOW_HELP",
               "guid": "7fdad9be-8250-4587-a843-c721d87a1934",
               "type": "command"
            }, {
               "action": "COMMAND_SHOW_KEYBOARDSHORTCUTS",
               "guid": "75579cc0-ff9c-4eae-bacb-904ead8b88ca",
               "type": "command"
            }, {
               "action": "COMMAND_SHOW_WELCOME",
               "guid": "7b4da440-99e7-4068-8f1f-a2ee260cf279",
               "type": "command"
            }, {
               "action": "COMMAND_SHOW_COMMUNITY",
               "guid": "888d4af6-8ce7-4a15-9e58-9248bb232736",
               "type": "command"
            }, {
               "action": "COMMAND_REPORT_BUG",
               "guid": "982406ad-e9f3-4188-9e99-51cfb91fa312",
               "type": "command"
            }, {
               "action": "",
               "guid": "b1a1d451-df9a-4ddb-a496-569c50236409",
               "type": "separator"
            }, {
               "action": "COMMAND_CHECK_FOR_UPDATES",
               "guid": "e5f784ec-4067-4a8d-9df6-2ea47eafb29e",
               "type": "command"
            }, {
               "action": "",
               "guid": "c181929e-a424-429f-be97-42950caf3f32",
               "type": "separator"
            }, {
               "action": "COMMAND_SHOW_ABOUT",
               "guid": "f012d89d-fd6b-404d-87d6-78feeae5a8e3",
               "type": "command"
            } ],
            "guid": "20b1a67e-a724-44e3-a453-eb2f7d5649d1",
            "type": "folder"
         } ],
         "guid": "751c3ca8-cb9b-4c4a-9ad7-a813545c6ee0",
         "origin": 2,
         "title": "Vivaldi",
         "type": "folder"
      } ],
      "guid": "ad5cc0ab-3ab1-4439-89e0-a2e64702d401",
      "origin": 2,
      "title": "More Tools",
      "type": "folder"
   }, {
      "action": "",
      "guid": "ec926246-0525-4d1f-9a82-ac662f74877d",
      "origin": 2,
      "type": "separator"
   }, {
      "action": "MENU_681",
      "children": [ {
         "action": "COMMAND_CLIPBOARD_CUT",
         "guid": "2226225a-b2ae-4402-abf2-1bf62c700857",
         "origin": 2,
         "type": "command"
      }, {
         "action": "COMMAND_CLIPBOARD_COPY",
         "guid": "12a16659-d605-4d03-b302-a8bd238fdab9",
         "origin": 2,
         "type": "command"
      }, {
         "action": "COMMAND_CLIPBOARD_PASTE",
         "guid": "a9b39751-3faa-4442-9404-80f72efad1bd",
         "origin": 2,
         "type": "command"
      } ],
      "guid": "91993abe-d9df-44fa-9630-1453880bbaeb",
      "origin": 2,
      "title": "Edit",
      "type": "folder"
   }, {
      "action": "",
      "guid": "f97d53d6-7924-477c-bcb1-7589dd994c7c",
      "origin": 2,
      "type": "separator"
   }, {
      "action": "COMMAND_SHOW_SETTINGS",
      "guid": "0eae96d7-6e62-4ca5-873b-759ed18d6fe1",
      "origin": 2,
      "type": "command"
   }, {
      "action": "COMMAND_SHOW_ABOUT",
      "guid": "889eea4a-1c85-492e-bc97-a6c948ea0c5d",
      "origin": 2,
      "type": "command"
   }, {
      "action": "COMMAND_CHECK_FOR_UPDATES",
      "guid": "6f03184b-22c6-4061-b373-2a62753762f4",
      "origin": 2,
      "type": "command"
   }, {
      "action": "",
      "guid": "3ac381d9-bba0-40c2-82a6-43f7ec3295f7",
      "origin": 2,
      "type": "separator"
   }, {
      "action": "COMMAND_EXIT",
      "guid": "273f1e64-eaad-42b5-b5ad-511cd9e735b4",
      "origin": 2,
      "type": "command"
   } ],
   "guid": "fbfb8360-6c8d-4dcd-8364-fddc09a4734a",
   "role": "vertical",
   "type": "menu"
}, {
   "action": "mac",
   "children": [ {
      "action": "MENU_APPLE_APP",
      "children": [ {
         "action": "COMMAND_SHOW_ABOUT",
         "guid": "8726667a-5553-455e-b048-6cb17e8d97b9",
         "type": "command"
      }, {
         "action": "",
         "guid": "1e9feb59-bf5f-46c6-886d-19a9a4a78b43",
         "type": "separator"
      }, {
         "action": "COMMAND_SHOW_SETTINGS",
         "guid": "baf5d2ce-2f51-4453-8500-b23d520af9e4",
         "type": "command"
      }, {
         "action": "",
         "guid": "2c473be0-b9fd-4b9f-b513-17e8b195eb1b",
         "type": "separator"
      }, {
         "action": "COMMAND_CHECK_FOR_UPDATES",
         "guid": "d931aa3a-691d-4260-87c2-9bf30852c357",
         "type": "command"
      }, {
         "action": "",
         "guid": "0d54e3a4-31cb-4f23-b687-72dfa17cfefc",
         "type": "separator"
      }, {
         "action": "CONTAINER_MAC_SERVICES",
         "guid": "1f7db7aa-ac55-4800-8bb2-3dd2c32d89ff",
         "mode": "folder",
         "type": "container"
      }, {
         "action": "",
         "guid": "69cea4ea-15c3-4aec-8140-38d2cf9252dd",
         "type": "separator"
      }, {
         "action": "COMMAND_HIDE_VIVALDI",
         "guid": "83deed3f-bd79-41c2-a367-807fa57f5693",
         "type": "command"
      }, {
         "action": "COMMAND_HIDE_OTHERS",
         "guid": "6b85524e-66c3-4125-adbf-2ac181ab16a9",
         "type": "command"
      }, {
         "action": "COMMAND_SHOW_ALL",
         "guid": "b13050b8-2800-48ab-bac8-b441e6217de3",
         "type": "command"
      }, {
         "action": "",
         "guid": "3a90a227-9af0-4b87-8cdb-a6ae6b5ff6af",
         "type": "separator"
      }, {
         "action": "COMMAND_QUIT_MAC_MAYBE_WARN",
         "guid": "94b20c7d-3605-45b1-b6f6-d65833ea54eb",
         "type": "command"
      } ],
      "guid": "928a7e4b-4429-45c3-a6db-9a75dc1f4cb7",
      "type": "folder"
   }, {
      "action": "MENU_FILE",
      "children": [ {
         "action": "COMMAND_NEW_TAB",
         "guid": "a95de991-2574-45b2-afe4-5b9394e622cf",
         "type": "command"
      }, {
         "action": "COMMAND_NEW_WINDOW",
         "guid": "1c84eb08-27ba-4eb1-af07-bcaae755d7bd",
         "type": "command"
      }, {
         "action": "COMMAND_NEW_PRIVATE_WINDOW",
         "guid": "043cce14-5e08-4652-b321-8b4b11b489c4",
         "type": "command"
      }, {
         "action": "COMMAND_OPEN_PAGE",
         "guid": "46bc1e65-b184-4067-8a1b-56afc14ac70f",
         "type": "command"
      }, {
         "action": "COMMAND_FOCUS_ADDRESSFIELD",
         "guid": "17805891-4ff3-4e12-b972-43d38d27ac56",
         "type": "command"
      }, {
         "action": "",
         "guid": "11624720-a5bd-4a86-8625-f06be153418e",
         "type": "separator"
      }, {
         "action": "COMMAND_CLOSE_TAB",
         "guid": "9f20d08f-742b-4e0b-a519-e94073c11bc4",
         "type": "command"
      }, {
         "action": "COMMAND_CLOSE_WINDOW",
         "guid": "61b8cddc-986c-4c24-9d8e-6dd026e34166",
         "type": "command"
      }, {
         "action": "COMMAND_SAVE_PAGE",
         "guid": "d3fdfd59-e67c-4dad-9e66-d0eefbc3f639",
         "type": "command"
      }, {
         "action": "",
         "guid": "9859febf-b7aa-4cd7-8f2b-402c93766e5c",
         "type": "separator"
      }, {
         "action": "COMMAND_IMPORT_DATA",
         "guid": "fbc62672-761b-4e06-8a79-f3f9b4f7abd2",
         "type": "command"
      }, {
         "action": "COMMAND_IMPORT_CALENDAR",
         "guid": "c007aef5-5a60-4518-b7f5-0be608289360",
         "type": "command"
      }, {
         "action": "COMMAND_EXPORT_DATA",
         "guid": "8f177f92-c78c-4aa9-8e55-158c9c58b71b",
         "type": "command"
      }, {
         "action": "",
         "guid": "26986d7d-b12a-45d4-86d8-2e285d8c13ff",
         "type": "separator"
      }, {
         "action": "COMMAND_OPEN_SESSION",
         "guid": "fc792662-c2f5-4e78-83a8-878c94cb94f1",
         "type": "command"
      }, {
         "action": "COMMAND_SAVE_SESSION",
         "guid": "54d0e154-d88b-403e-8a23-1279ecaf4bf2",
         "type": "command"
      }, {
         "action": "",
         "guid": "d5610562-6e2f-4572-8e9d-bf9a9906772a",
         "type": "separator"
      }, {
         "action": "COMMAND_PRINT_PAGE",
         "guid": "8ddfdcce-5a8f-4499-8427-3d16bc50e77f",
         "type": "command"
      }, {
         "action": "COMMAND_START_CHROMECAST",
         "guid": "8fd6dfb1-137b-4b87-930f-bce5c5618766",
         "type": "command"
      } ],
      "guid": "a8a73d0b-b61b-49e9-870a-1b9800d2e21f",
      "type": "folder"
   }, {
      "action": "MENU_EDIT",
      "children": [ {
         "action": "COMMAND_CLIPBOARD_UNDO",
         "guid": "4b6be299-e25e-4a9d-9f50-df493f145235",
         "type": "command"
      }, {
         "action": "COMMAND_CLIPBOARD_REDO",
         "guid": "9080a86f-daf2-4f6d-b6c5-8d488c58400b",
         "type": "command"
      }, {
         "action": "",
         "guid": "432b0c69-da54-495d-bf76-a9588dee537f",
         "type": "separator"
      }, {
         "action": "COMMAND_CLIPBOARD_CUT",
         "guid": "e53143fa-bb2f-4959-b144-c9ba620b8824",
         "type": "command"
      }, {
         "action": "COMMAND_CLIPBOARD_COPY",
         "guid": "d462ffae-153a-41d7-8eba-1a6a7a445c10",
         "type": "command"
      }, {
         "action": "COMMAND_CLIPBOARD_PASTE",
         "guid": "3e180eb2-b789-4a8c-9154-f2b333f48f8b",
         "type": "command"
      }, {
         "action": "COMMAND_CLIPBOARD_PASTE_AS_PLAIN_TEXT_OR_PASTE_AND_GO",
         "guid": "77e6ffc2-39ea-4dc0-abfb-9c9b9ea4913e",
         "type": "command"
      }, {
         "action": "COMMAND_CLIPBOARD_SELECT_ALL",
         "guid": "f8160e62-9d78-4b0c-b06f-532b35b5bbb9",
         "type": "command"
      }, {
         "action": "",
         "guid": "7d0d25bd-1a5c-4211-8c61-27d338519909",
         "type": "separator"
      }, {
         "action": "COMMAND_FIND_IN_PAGE",
         "guid": "f6f2f722-c1be-4204-951d-d7e6aa83f820",
         "type": "command"
      }, {
         "action": "",
         "guid": "eaf27d25-88ea-4ecb-a744-14f5a1f880d6",
         "type": "separator"
      } ],
      "guid": "155a6b4a-2b4c-43b9-9462-d8fe16ce692e",
      "type": "folder"
   }, {
      "action": "MENU_VIEW",
      "children": [ {
         "action": "COMMAND_MAIN_TOGGLE_TAB_BAR",
         "guid": "2748ad97-8058-413d-b307-2b8b8187a3f1",
         "type": "checkbox"
      }, {
         "action": "COMMAND_SHOW_BOOKMARK_BAR",
         "guid": "d50e0e84-cd67-4634-8e53-b0a0f828bea3",
         "type": "checkbox"
      }, {
         "action": "COMMAND_TOGGLE_FOOTER",
         "guid": "8ac56570-4aa0-46c8-9213-f5a160504116",
         "type": "checkbox"
      }, {
         "action": "COMMAND_TOGGLE_PANEL",
         "guid": "9d25863f-2fc0-45ae-9fb5-b11cf3dcca29",
         "type": "checkbox"
      }, {
         "action": "",
         "guid": "8d96b37c-4486-4569-983d-b272491bd4b6",
         "type": "separator"
      }, {
         "action": "COMMAND_SHOW_BOOKMARK_PANEL",
         "guid": "27cd4838-df54-4b56-8a22-b21c7a15d7cf",
         "type": "command"
      }, {
         "action": "COMMAND_SHOW_MAIL_PANEL",
         "guid": "061e2680-a8f9-43c9-a2f7-45b109fa1836",
         "type": "command"
      }, {
         "action": "COMMAND_SHOW_CONTACTS_PANEL",
         "guid": "e22d8f01-417e-4173-bef0-6043842e0a55",
         "type": "command"
      }, {
         "action": "COMMAND_SHOW_DOWNLOADS_PANEL",
         "guid": "d95402e4-e27d-4661-a3b2-19401f7740c3",
         "type": "command"
      }, {
         "action": "COMMAND_SHOW_NOTES_PANEL",
         "guid": "dadcef06-addf-4e8d-ae7a-af6e4e61288c",
         "type": "command"
      }, {
         "action": "COMMAND_SHOW_HISTORY_PANEL",
         "guid": "dc3852cb-5a6e-4017-83ea-845c4559078b",
         "type": "command"
      }, {
         "action": "COMMAND_SHOW_WINDOW_PANEL",
         "guid": "7099151e-4f54-44d3-af0b-04adcc6f63da",
         "type": "command"
      }, {
         "action": "",
         "guid": "41b07f29-c086-4b66-b465-423ad91cc22f",
         "type": "separator"
      }, {
         "action": "CONTAINER_WEBPANEL",
         "guid": "d348e7b8-8aa6-44ba-b13b-7bca6a245871",
         "mode": "folder",
         "type": "container"
      }, {
         "action": "",
         "guid": "7de77dc3-3107-4df6-ae2d-ede3e659680a",
         "type": "separator"
      }, {
         "action": "MENU_IMAGES_AND_ANIMATION",
         "children": [ {
            "action": "COMMAND_SET_LOAD_IMAGES_ALWAYS",
            "guid": "fc99327f-092c-4383-a1da-80562368989e",
            "radiogroup": "loadimage",
            "type": "radio"
         }, {
            "action": "COMMAND_SET_LOAD_IMAGES_NEVER",
            "guid": "9a04d31f-dd90-41cb-ad18-b65892f0703e",
            "radiogroup": "loadimage",
            "type": "radio"
         }, {
            "action": "COMMAND_SET_LOAD_IMAGES_CACHE",
            "guid": "cc11a2a4-1a65-4d8a-b327-a96c0ef6ee88",
            "radiogroup": "loadimage",
            "type": "radio"
         }, {
            "action": "",
            "guid": "b97abb3c-3e77-42d3-a9ca-6606bed6b58a",
            "type": "separator"
         }, {
            "action": "COMMAND_SET_ANIMATIONS_LOOP",
            "guid": "a740980e-0cb3-4413-9cdd-8879cadc5c6e",
            "radiogroup": "animation",
            "type": "radio"
         }, {
            "action": "COMMAND_SET_ANIMATIONS_NEVER",
            "guid": "32ccab25-bf9f-40f6-ae49-4ecbfbf256f3",
            "radiogroup": "animation",
            "type": "radio"
         }, {
            "action": "COMMAND_SET_ANIMATIONS_ONCE",
            "guid": "967956aa-5179-4f68-afa6-19c9dc2dee5a",
            "radiogroup": "animation",
            "type": "radio"
         } ],
         "guid": "0bfa63b0-1e15-4ad5-8eb2-d98553fcd65c",
         "type": "folder"
      }, {
         "action": "",
         "guid": "d32b1840-3125-45fb-bf75-2f9cfa33dcdd",
         "type": "separator"
      }, {
         "action": "COMMAND_MAIN_ZOOM_IN",
         "guid": "3b6dbb21-111e-4dc8-bb45-59a901a54a73",
         "type": "command"
      }, {
         "action": "COMMAND_MAIN_ZOOM_OUT",
         "guid": "e8469928-4f38-42b7-84b8-db7fcea2a6c0",
         "type": "command"
      }, {
         "action": "COMMAND_MAIN_ZOOM_RESET",
         "guid": "a7193b8e-319b-4224-bb4b-c9112cd8a121",
         "type": "command"
      }, {
         "action": "",
         "guid": "d3f42fc7-9f56-4ea6-9bfb-9d5c7711e68e",
         "type": "separator"
      }, {
         "action": "COMMAND_FULLSCREEN",
         "guid": "11783d39-9c8f-47a4-b2d1-1b5c106eb206",
         "type": "command"
      } ],
      "guid": "8528b9c8-6ffd-4ecf-96cc-a8840bfe0135",
      "type": "folder"
   }, {
      "action": "MENU_BOOKMARKS",
      "children": [ {
         "action": "COMMAND_SHOW_BOOKMARKS",
         "guid": "33eb6a80-3042-4e69-9cbf-3bc9932b7d0c",
         "type": "command"
      }, {
         "action": "CONTAINER_BOOKMARK",
         "guid": "8e3c6455-9442-437c-b1db-6cc632d7267d",
         "mode": "inline",
         "type": "container"
      } ],
      "guid": "e15f9f09-748a-473f-a121-9b730873b407",
      "type": "folder"
   }, {
      "action": "MENU_TOOLS",
      "children": [ {
         "action": "COMMAND_SHOW_QUICK_COMMANDS",
         "guid": "da375403-3c6c-4a81-be28-85cbd16e863e",
         "type": "command"
      }, {
         "action": "",
         "guid": "b092213d-eced-4a7e-a175-c93f88247be5",
         "type": "separator"
      }, {
         "action": "COMMAND_SHOW_BOOKMARKS",
         "guid": "efbfde90-5e2c-43b2-977d-c1ab2569727d",
         "type": "command"
      }, {
         "action": "COMMAND_SHOW_HISTORY",
         "guid": "f5059340-7426-4574-aaf8-82e9dc2089b0",
         "type": "command"
      }, {
         "action": "COMMAND_SHOW_CALENDAR",
         "guid": "50dbe2e5-81c3-4a24-8e84-3c2ade14c29a",
         "type": "command"
      }, {
         "action": "COMMAND_SHOW_EXTENSIONS",
         "guid": "8f25a74f-ed5b-4d90-801e-65c73aef9142",
         "type": "command"
      }, {
         "action": "",
         "guid": "b4e00b48-995b-4ef8-853d-812c9173e3ef",
         "type": "separator"
      }, {
         "action": "MENU_CAPTURE",
         "children": [ {
            "action": "COMMAND_CAPTURE_PAGE_TO_DISK",
            "guid": "ed3a4e27-ea60-4240-a8f9-de503382fb4d",
            "type": "command"
         }, {
            "action": "COMMAND_CAPTURE_PAGE_TO_CLIPBOARD",
            "guid": "2328f68c-413b-4edf-963a-03dfc7cad11c",
            "type": "command"
         }, {
            "action": "",
            "guid": "b7238126-5ff2-4d8d-b087-238faaab5581",
            "type": "separator"
         }, {
            "action": "COMMAND_CAPTURE_AREA_TO_DISK",
            "guid": "6dd0c3ed-2073-42e2-8893-eaca23805c5e",
            "type": "command"
         }, {
            "action": "COMMAND_CAPTURE_AREA_TO_CLIPBOARD",
            "guid": "f2f20d37-b38e-48b4-95a2-1863a6ea7ae8",
            "type": "command"
         } ],
         "guid": "4d73fd65-75fb-47e6-8723-b24eda049c75",
         "type": "folder"
      }, {
         "action": "",
         "guid": "6610c4fe-59dd-479f-b612-e02516fc15d8",
         "type": "separator"
      }, {
         "action": "COMMAND_SHOW_CLEAR_PRIVATE_DATA",
         "guid": "b413c4fd-64e6-41e1-bed0-ffe94183c305",
         "type": "command"
      }, {
         "action": "",
         "guid": "11077759-3340-4451-b51e-c0287e466cc5",
         "type": "separator"
      }, {
         "action": "COMMAND_TASK_MANAGER",
         "guid": "6d6d9cb3-8981-4f49-93c3-2a996cef71db",
         "type": "command"
      }, {
         "action": "COMMAND_DEVELOPER_TOOLS",
         "guid": "2d1fb444-4f0f-4685-817c-1967d16676b5",
         "type": "command"
      } ],
      "guid": "b1212b6e-aa02-495f-9147-8cf59d2a6ed4",
      "type": "folder"
   }, {
      "action": "MENU_WINDOW",
      "children": [ {
         "action": "CONTAINER_PINNED_TAB",
         "guid": "57c69ddd-b6bc-47bd-b43a-2222b71cd0a5",
         "mode": "folder",
         "type": "container"
      }, {
         "action": "",
         "guid": "e1080889-6684-4c38-ad93-d717bdaf7ff2",
         "type": "separator"
      }, {
         "action": "CONTAINER_TAB",
         "guid": "258d254a-fd9c-491c-aea0-a8d8be95c6c9",
         "mode": "inline",
         "type": "container"
      }, {
         "action": "",
         "guid": "b0f0f211-3abd-4bf6-bac7-8c371d30df02",
         "type": "separator"
      } ],
      "guid": "5ecb5e2a-ea47-4dc1-9f7a-a5b54b93df9b",
      "type": "folder"
   }, {
      "action": "MENU_HELP",
      "children": [ {
         "action": "COMMAND_SHOW_HELP",
         "guid": "30b2e741-e7e1-4e94-978d-f83912571f0f",
         "type": "command"
      }, {
         "action": "COMMAND_SHOW_KEYBOARDSHORTCUTS",
         "guid": "87f78823-dbe1-4f5a-aa39-4b24672087b4",
         "type": "command"
      }, {
         "action": "",
         "guid": "55a77aa4-4893-4cf7-9e32-cba3f11b6ca5",
         "type": "separator"
      }, {
         "action": "COMMAND_SHOW_WELCOME",
         "guid": "d030ecc4-7093-431f-aa7f-135dd6a1c9d0",
         "type": "command"
      }, {
         "action": "COMMAND_SHOW_COMMUNITY",
         "guid": "858ef80a-0c6c-445b-aa28-ab429ca6cc85",
         "type": "command"
      }, {
         "action": "COMMAND_REPORT_BUG",
         "guid": "8bf09c21-a263-4ac7-8fdb-c8fed565f7e9",
         "type": "command"
      } ],
      "guid": "346b00bb-d6d5-4be0-b1c0-90d39648c4f5",
      "type": "folder"
   } ],
   "guid": "1e857953-cbe5-45d6-9c90-6cac0fd4670b",
   "role": "mac",
   "type": "menu"
}, {
   "deleted": [  ],
   "format": "1",
   "type": "control",
   "version": "1"
} ]
